"","PID","A_1","A_2"
"101",6162102,400,400
"102",6162202,400,400
"103",6162302,400,400
"104",6162402,200,400
"105",6162502,400,400
"106",6163113,146,NA
"107",6163123,54,NA
"108",6163303,200,NA
"109",6163403,200,NA
"110",6163503,200,200
"111",6165105,400,NA
"112",6165205,400,NA
"113",6165305,400,NA
"114",6165405,200,NA
"115",6165505,200,NA
"116",6166301,200,200
"117",6166411,99,97
"118",6166421,101,103
"119",6166501,200,200
"120",7094101,400,NA
"121",7094201,200,200
"122",7094511,145,145
"123",7094521,110,110
"124",7094531,145,145
"125",7095102,400,400
"126",7095202,400,400
"127",7095312,306,306
"128",7095322,94,94
"129",7095412,340,337
"130",7095422,8,10
"131",7095432,52,53
"132",7095502,200,200
"133",7096103,400,400
"134",7096203,400,400
"135",7096303,400,400
"136",7096403,400,400
"137",7096503,400,400
"138",7097104,500,500
"139",7097214,157,NA
"140",7097224,108,NA
"141",7097234,235,NA
"142",7097314,451,451
"143",7097324,49,49
"144",7109301,200,200
"145",7111103,200,200
"146",7113115,340,NA
"147",7113125,19,NA
"148",7113135,41,NA
"149",7114201,200,200
"150",7114311,172,173
"151",7114321,28,27
"152",7114401,200,200
"153",7114501,500,500
"154",7116303,200,200
"155",7157104,400,400
"156",7157204,200,200
"157",7157304,500,500
"158",7157404,400,400
"159",7157504,500,500
"160",7158105,400,NA
"161",7158205,400,NA
"162",7158305,400,NA
"163",7158405,400,NA
"164",7158505,400,NA
"165",7159101,400,400
"166",7159201,400,400
"167",7159301,400,400
"168",7159401,500,500
"169",7159501,400,400
"170",7160102,200,200
"171",7160202,400,400
"172",7160302,400,400
"173",7160402,400,400
"174",7160502,400,400
"175",7161103,200,200
"176",7161203,500,500
"177",7161303,400,400
"178",7161403,400,400
"179",7161503,200,200
"180",7162104,400,400
"181",7162204,200,200
"182",7162314,67,67
"183",7162324,81,81
"184",7162334,160,160
"185",7162344,92,92
"186",7162404,200,400
"187",7162504,200,200
"188",7163105,400,NA
"189",7163205,400,NA
"190",7163305,200,NA
"191",7163405,400,NA
"192",7163515,250,NA
"193",7163525,65,NA
"194",7163535,85,NA
"195",7164111,363,360
"196",7164121,37,40
"197",7164211,233,117
"198",7164221,167,83
"199",7164301,200,200
"200",7164401,400,400